The Lesser Known Stars of the Tidyverse
…
## Warning: 43 parsing failures.
##  row                               col           expected           actual                          file
## 1209 CompensationAmount                a number           -                'multipleChoiceResponses.csv'
## 1316 WorkToolsFrequencyKNIMECommercial 1/0/T/F/TRUE/FALSE Rarely           'multipleChoiceResponses.csv'
## 1594 WorkToolsFrequencyKNIMECommercial 1/0/T/F/TRUE/FALSE Often            'multipleChoiceResponses.csv'
## 2443 WorkToolsFrequencyKNIMECommercial 1/0/T/F/TRUE/FALSE Most of the time 'multipleChoiceResponses.csv'
## 2466 WorkToolsFrequencyKNIMECommercial 1/0/T/F/TRUE/FALSE Most of the time 'multipleChoiceResponses.csv'
## .... ................................. .................. ................ .............................
## See problems(...) for more details.

It’s definitely faster, but it seems we have some errors. Let’s inspect them.

problems(multiple_choice_responses)

## # A tibble: 43 x 5
##      row col                     expected       actual       file               
##    <int> <chr>                   <chr>          <chr>        <chr>              
##  1  1209 CompensationAmount      a number       -            'multipleChoiceRes…
##  2  1316 WorkToolsFrequencyKNIM… 1/0/T/F/TRUE/… Rarely       'multipleChoiceRes…
##  3  1594 WorkToolsFrequencyKNIM… 1/0/T/F/TRUE/… Often        'multipleChoiceRes…
##  4  2443 WorkToolsFrequencyKNIM… 1/0/T/F/TRUE/… Most of the… 'multipleChoiceRes…
##  5  2466 WorkToolsFrequencyKNIM… 1/0/T/F/TRUE/… Most of the… 'multipleChoiceRes…
##  6  2622 WorkToolsFrequencyKNIM… 1/0/T/F/TRUE/… Often        'multipleChoiceRes…
##  7  2630 WorkToolsFrequencyKNIM… 1/0/T/F/TRUE/… Sometimes    'multipleChoiceRes…
##  8  2724 WorkToolsFrequencyKNIM… 1/0/T/F/TRUE/… Often        'multipleChoiceRes…
##  9  3022 WorkToolsFrequencyKNIM… 1/0/T/F/TRUE/… Sometimes    'multipleChoiceRes…
## 10  3396 WorkToolsFrequencyKNIM… 1/0/T/F/TRUE/… Sometimes    'multipleChoiceRes…
## # … with 33 more rows
…
## # A tibble: 1 x 10
##   GenderSelect Country   Age EmploymentStatus StudentStatus LearningDataScience
##          <int>   <int> <int>            <int>         <int>               <int>
## 1            5      53    85                7             3                   4
## # … with 4 more variables: CodeWriter <int>, CareerSwitcher <int>,
## #   CurrentJobTitleSelect <int>, TitleFit <int>

This data would be more helpful if it was tidy and had two columns, question and num_distinct_answers. We can use tidyr::gather to change our data from “wide” to “long” format and then arrange it so we can see the columns with the most distinct answers first. If you’ve used (or are still using!) reshape2, check out tidyr; reshape2 is retired and is only updated with changes necessary for it to remain on CRAN. While not exactly equivalent, tidyr::spread replaces reshape2::dcast, tidyr::separate reshape2::colsplit, and tidyr::gather reshape2::melt.

multiple_choice_responses %>%
  summarise_all(n_distinct) %>%
  tidyr::gather(question, num_distinct_answers) %>%
  arrange(desc(num_distinct_answers))

## # A tibble: 228 x 2
##    question               num_distinct_answers
##    <chr>                                 <int>
##  1 WorkMethodsSelect                      6191
##  2 LearningPlatformSelect                 5363
##  3 WorkToolsSelect                        5249
##  4 WorkChallengesSelect                   4288
##  5 WorkDatasetsChallenge                  2221
##  6 PastJobTitlesSelect                    1856
##  7 MLTechniquesSelect                     1802
##  8 WorkDatasets                           1724
##  9 WorkAlgorithmsSelect                   1421
## 10 MLSkillsSelect                         1038
## # … with 218 more rows

Let’s take a look at the question with the most distinct answers, WorkMethodsSelect.

multiple_choice_responses %>%
  count(WorkMethodsSelect, sort = TRUE)

## # A tibble: 6,191 x 2
##    WorkMethodsSelect                           n
##    <chr>                                   <int>
##  1 <NA>                                     8943
##  2 Data Visualization                        144
##  3 Other                                     144
##  4 Logistic Regression                        66
##  5 Time Series Analysis                       49
##  6 Neural Networks                            45
##  7 A/B Testing                                42
##  8 Data Visualization,Time Series Analysis    37
##  9 Text Analytics                             36
## 10 Decision Trees                             29
## # … with 6,181 more rows

We can see this is a multiple select question, where if a person selected multiple answers they’re listed as one entry, separated by commas. Let’s tidy it up.

First, let’s get rid of the NAs. We can use !is.na(WorkMethodsSelect), short for is.na(WorkMethodsSelect) == FALSE, to filter out NAs. We then use str_split, from stringr, to divide the entries up. str_split(WorkMethodsSelect, ",") says “Take this string and split it into a list by dividing it where there are ,s.”

nested_workmethods <- multiple_choice_responses %>%
  select(WorkMethodsSelect) %>%
  filter(!is.na(WorkMethodsSelect)) %>%
  mutate(work_method = str_split(WorkMethodsSelect, ",")) 

nested_workmethods %>%
  select(work_method)

## # A tibble: 7,773 x 1
##    work_method
##    <list>     
##  1 <chr [5]>  
##  2 <chr [12]> 
##  3 <chr [17]> 
##  4 <chr [14]> 
##  5 <chr [12]> 
##  6 <chr [1]>  
##  7 <chr [14]> 
##  8 <chr [12]> 
##  9 <chr [7]>  
## 10 <chr [5]>  
## # … with 7,763 more rows

Now we have a list column, with each entry in the list being one work method. We can unnest this so we can get back a tidy dataframe.

unnested_workmethods <- nested_workmethods %>%
  tidyr::unnest(work_method) %>%
  select(work_method)

unnested_workmethods

## # A tibble: 59,497 x 1
##    work_method                     
##    <chr>                           
##  1 Association Rules               
##  2 Collaborative Filtering         
##  3 Neural Networks                 
##  4 PCA and Dimensionality Reduction
##  5 Random Forests                  
##  6 A/B Testing                     
##  7 Bayesian Techniques             
##  8 Data Visualization              
##  9 Decision Trees                  
## 10 Ensemble Methods                
## # … with 59,487 more rows

Great! As a last step, let’s count this data so we can find which are the most common work methods people use.

unnested_workmethods %>%
  count(work_method, sort = TRUE)

## # A tibble: 31 x 2
##    work_method                          n
##    <chr>                            <int>
##  1 Data Visualization                5022
##  2 Logistic Regression               4291
##  3 Cross-Validation                  3868
##  4 Decision Trees                    3695
##  5 Random Forests                    3454
##  6 Time Series Analysis              3153
##  7 Neural Networks                   2811
##  8 PCA and Dimensionality Reduction  2789
##  9 kNN and Other Clustering          2624
## 10 Text Analytics                    2405
## # … with 21 more rows
…
Graphing Frequency of Different Work Challenges

Now let’s move on to understanding what challenges people face at work. This was one of those categories where there were multiple questions asked, all having names starting with WorkChallengeFrequency and ending with the challenge (e.g “DirtyData”).

We can find the relevant columns by using the dplyr select helper contains. We then use gather to tidy the data for analysis, filter for only the non-NAs, and remove the WorkChallengeFrequency from each question using stringr::str_remove.

WorkChallenges <- multiple_choice_responses %>%
  select(contains("WorkChallengeFrequency")) %>%
  gather(question, response) %>%
  filter(!is.na(response)) %>%
  mutate(question = stringr::str_remove(question, "WorkChallengeFrequency")) 

WorkChallenges

## # A tibble: 31,486 x 2
##    question response        
##    <chr>    <chr>           
##  1 Politics Rarely          
##  2 Politics Often           
##  3 Politics Often           
##  4 Politics Often           
##  5 Politics Rarely          
##  6 Politics Most of the time
##  7 Politics Often           
##  8 Politics Often           
##  9 Politics Rarely          
## 10 Politics Most of the time
## # … with 31,476 more rows
…
