…
library(tidyverse)

answers <- read_csv("Answers.csv")
questions <- read_csv("Questions.csv")

funneljoin is not yet on CRAN, so you’ll need to use devtools to install it from GitHub.

# devtools::install_github("robinsones/funneljoin")
library(funneljoin)

Let’s take a quick look at the questions and answers data set.

questions

## # A tibble: 189,930 x 6
##        Id OwnerUserId CreationDate        Score Title         Body         
##     <dbl>       <dbl> <dttm>              <dbl> <chr>         <chr>        
##  1  77434       14008 2008-09-16 21:40:29   171 How to acces… "<p>Suppose …
##  2  79709          NA 2008-09-17 03:39:16     3 Worse sin: s… "<p>I have a…
##  3  95007       15842 2008-09-18 17:59:19    56 Explain the … "<p>I've bee…
##  4 103312          NA 2008-09-19 16:09:26     4 How to test … "<p>How can …
##  5 255697     1941213 2008-11-01 15:48:30     4 Is there an … "<p>I'm look…
##  6 359438        2173 2008-12-11 14:02:06     4 Optimization… "<p>Does any…
##  7 439526       37751 2009-01-13 15:58:48    23 Thinking in … "<p>I know t…
##  8 445059       37751 2009-01-14 23:09:02    12 Vectorize my… "<p>So earli…
##  9 467110       11301 2009-01-21 21:33:13     5 Is R a compi… "<p>I can't …
## 10 476726         277 2009-01-24 21:56:23    10 Filtering da… "<p>I have a…
## # … with 189,920 more rows

answers 

## # A tibble: 250,788 x 7
##       Id OwnerUserId CreationDate        ParentId Score IsAcceptedAnswer
##    <dbl>       <dbl> <dttm>                 <dbl> <dbl> <lgl>           
##  1 79741        3259 2008-09-17 03:43:22    79709    -1 FALSE           
##  2 79768        6043 2008-09-17 03:48:29    79709     9 FALSE           
##  3 79779        8002 2008-09-17 03:49:36    79709     0 FALSE           
##  4 79788          NA 2008-09-17 03:51:30    79709     4 FALSE           
##  5 79827       14257 2008-09-17 03:58:26    79709     1 FALSE           
##  6 79893       14928 2008-09-17 04:11:08    79709     6 FALSE           
##  7 83162       15842 2008-09-17 13:27:17    77434    70 FALSE           
##  8 83222        1428 2008-09-17 13:32:45    77434   236 FALSE           
##  9 86804          NA 2008-09-17 19:39:37    79709     1 FALSE           
## 10 95598        1179 2008-09-18 18:49:09    95007     5 FALSE           
## # … with 250,778 more rows, and 1 more variable: Body <chr>
…
after_join()

Let’s start with a relatively simple question - how many people who ask a question later answer one? To look at this, we’ll need to link the questions with the answers table using owner_user_id and creation_date using funneljoin’s after_join function.

first_answer_after_first_question <- questions %>%
  after_left_join(answers,
             by_time = "creation_date",
             by_user = "owner_user_id",
             type = "first-firstafter", 
             suffix = c("_question", "_answer")) 

first_answer_after_first_question

## # A tibble: 60,335 x 12
##    id_question owner_user_id creation_date_ques… score_question title
##          <dbl>         <dbl> <dttm>                       <dbl> <chr>
##  1       77434         14008 2008-09-16 21:40:29            171 How …
##  2       95007         15842 2008-09-18 17:59:19             56 Expl…
##  3      255697       1941213 2008-11-01 15:48:30              4 Is t…
##  4      359438          2173 2008-12-11 14:02:06              4 Opti…
##  5      439526         37751 2009-01-13 15:58:48             23 Thin…
##  6      467110         11301 2009-01-21 21:33:13              5 Is R…
##  7      476726           277 2009-01-24 21:56:23             10 Filt…
##  8      495744         12677 2009-01-30 14:48:19              2 Oper…
##  9      498932           445 2009-01-31 14:50:28              3 What…
## 10      520810         63372 2009-02-06 15:49:48             20 Does…
## # … with 60,325 more rows, and 7 more variables: body_question <chr>,
## #   id_answer <dbl>, creation_date_answer <dttm>, parent_id <dbl>,
## #   score_answer <dbl>, is_accepted_answer <lgl>, body_answer <chr>
…
