…
purrr is a library for functional programming in R. If you’re familiar with purrr, it’s probably because of the map() function. If you’ve seen purrr but been scared off, I’m right there with you. It can definitely be intimidating - you’ll often see it used with nested lists or dataframes, like in this (modified) example from one of the last lessons in Jenny Bryan’s purrr tutorial:

library(dplyr)
library(purrr)
library(gapminder)
library(tidyr)

gapminder %>%
  group_by(country) %>%
  nest() %>%  
  mutate(fit = map(data, ~ lm(lifeExp ~ year, data = .x))) %>%
  mutate(rsq = map_dbl(fit, ~ summary(.x)[["r.squared"]])) %>%
  arrange(rsq)

## # A tibble: 142 x 4
##    country          data              fit         rsq
##    <fct>            <list>            <list>    <dbl>
##  1 Rwanda           <tibble [12 × 5]> <S3: lm> 0.0172
##  2 Botswana         <tibble [12 × 5]> <S3: lm> 0.0340
##  3 Zimbabwe         <tibble [12 × 5]> <S3: lm> 0.0562
##  4 Zambia           <tibble [12 × 5]> <S3: lm> 0.0598
##  5 Swaziland        <tibble [12 × 5]> <S3: lm> 0.0682
##  6 Lesotho          <tibble [12 × 5]> <S3: lm> 0.0849
##  7 Cote d'Ivoire    <tibble [12 × 5]> <S3: lm> 0.283 
##  8 South Africa     <tibble [12 × 5]> <S3: lm> 0.312 
##  9 Uganda           <tibble [12 × 5]> <S3: lm> 0.342 
## 10 Congo, Dem. Rep. <tibble [12 × 5]> <S3: lm> 0.348 
## # ... with 132 more rows
…
